{
    "_comment": "Please, refers to the documentation to retrieve the available values for these variables.",
    "basename": "",
    "websocket": "localhost:22484",
    "tangoDB": "testdb",
    "historyLimit": 100000,
    "data_delay": 5000
}